^C:\USERS\PRZEMEK\DESKTOP\PWR\SEMESTR IV\STRUKTURY DANYCH I ZŁOŻONOŚĆ OBLICZENIOWA\PROJEKT\SDIZO_BANASIAK_PROJ1\SDIZO_PROJ2\SDIZO_PROJ2\DEBUG\GRAPHADJACENCYLISTS.OBJ|C:\USERS\PRZEMEK\DESKTOP\PWR\SEMESTR IV\STRUKTURY DANYCH I ZŁOŻONOŚĆ OBLICZENIOWA\PROJEKT\SDIZO_BANASIAK_PROJ1\SDIZO_PROJ2\SDIZO_PROJ2\DEBUG\GRAPHINCIDENCEMATRIX.OBJ|C:\USERS\PRZEMEK\DESKTOP\PWR\SEMESTR IV\STRUKTURY DANYCH I ZŁOŻONOŚĆ OBLICZENIOWA\PROJEKT\SDIZO_BANASIAK_PROJ1\SDIZO_PROJ2\SDIZO_PROJ2\DEBUG\GRAPHTOP.OBJ|C:\USERS\PRZEMEK\DESKTOP\PWR\SEMESTR IV\STRUKTURY DANYCH I ZŁOŻONOŚĆ OBLICZENIOWA\PROJEKT\SDIZO_BANASIAK_PROJ1\SDIZO_PROJ2\SDIZO_PROJ2\DEBUG\MENU.OBJ|C:\USERS\PRZEMEK\DESKTOP\PWR\SEMESTR IV\STRUKTURY DANYCH I ZŁOŻONOŚĆ OBLICZENIOWA\PROJEKT\SDIZO_BANASIAK_PROJ1\SDIZO_PROJ2\SDIZO_PROJ2\DEBUG\SDIZO_PROJ2.OBJ|C:\USERS\PRZEMEK\DESKTOP\PWR\SEMESTR IV\STRUKTURY DANYCH I ZŁOŻONOŚĆ OBLICZENIOWA\PROJEKT\SDIZO_BANASIAK_PROJ1\SDIZO_PROJ2\SDIZO_PROJ2\DEBUG\STDAFX.OBJ
C:\USERS\PRZEMEK\DESKTOP\PWR\SEMESTR IV\STRUKTURY DANYCH I ZłOżONOść OBLICZENIOWA\PROJEKT\SDIZO_BANASIAK_PROJ1\SDIZO_PROJ2\DEBUG\SDIZO_PROJ2.EXE
C:\USERS\PRZEMEK\DESKTOP\PWR\SEMESTR IV\STRUKTURY DANYCH I ZłOżONOść OBLICZENIOWA\PROJEKT\SDIZO_BANASIAK_PROJ1\SDIZO_PROJ2\DEBUG\SDIZO_PROJ2.ILK
C:\USERS\PRZEMEK\DESKTOP\PWR\SEMESTR IV\STRUKTURY DANYCH I ZŁOŻONOŚĆ OBLICZENIOWA\PROJEKT\SDIZO_BANASIAK_PROJ1\SDIZO_PROJ2\DEBUG\SDIZO_PROJ2.PDB
^C:\USERS\PRZEMEK\DESKTOP\PWR\SEMESTR IV\STRUKTURY DANYCH I ZŁOŻONOŚĆ OBLICZENIOWA\PROJEKT\SDIZO_BANASIAK_PROJ2\SDIZO_PROJ2\SDIZO_PROJ2\DEBUG\BINSEARCHTREE.OBJ|C:\USERS\PRZEMEK\DESKTOP\PWR\SEMESTR IV\STRUKTURY DANYCH I ZŁOŻONOŚĆ OBLICZENIOWA\PROJEKT\SDIZO_BANASIAK_PROJ2\SDIZO_PROJ2\SDIZO_PROJ2\DEBUG\BSTNODE.OBJ|C:\USERS\PRZEMEK\DESKTOP\PWR\SEMESTR IV\STRUKTURY DANYCH I ZŁOŻONOŚĆ OBLICZENIOWA\PROJEKT\SDIZO_BANASIAK_PROJ2\SDIZO_PROJ2\SDIZO_PROJ2\DEBUG\GRAPHADJACENCYLISTS.OBJ|C:\USERS\PRZEMEK\DESKTOP\PWR\SEMESTR IV\STRUKTURY DANYCH I ZŁOŻONOŚĆ OBLICZENIOWA\PROJEKT\SDIZO_BANASIAK_PROJ2\SDIZO_PROJ2\SDIZO_PROJ2\DEBUG\GRAPHINCIDENCEMATRIX.OBJ|C:\USERS\PRZEMEK\DESKTOP\PWR\SEMESTR IV\STRUKTURY DANYCH I ZŁOŻONOŚĆ OBLICZENIOWA\PROJEKT\SDIZO_BANASIAK_PROJ2\SDIZO_PROJ2\SDIZO_PROJ2\DEBUG\GRAPHTOP.OBJ|C:\USERS\PRZEMEK\DESKTOP\PWR\SEMESTR IV\STRUKTURY DANYCH I ZŁOŻONOŚĆ OBLICZENIOWA\PROJEKT\SDIZO_BANASIAK_PROJ2\SDIZO_PROJ2\SDIZO_PROJ2\DEBUG\LIST.OBJ|C:\USERS\PRZEMEK\DESKTOP\PWR\SEMESTR IV\STRUKTURY DANYCH I ZŁOŻONOŚĆ OBLICZENIOWA\PROJEKT\SDIZO_BANASIAK_PROJ2\SDIZO_PROJ2\SDIZO_PROJ2\DEBUG\MENU.OBJ|C:\USERS\PRZEMEK\DESKTOP\PWR\SEMESTR IV\STRUKTURY DANYCH I ZŁOŻONOŚĆ OBLICZENIOWA\PROJEKT\SDIZO_BANASIAK_PROJ2\SDIZO_PROJ2\SDIZO_PROJ2\DEBUG\NODE.OBJ|C:\USERS\PRZEMEK\DESKTOP\PWR\SEMESTR IV\STRUKTURY DANYCH I ZŁOŻONOŚĆ OBLICZENIOWA\PROJEKT\SDIZO_BANASIAK_PROJ2\SDIZO_PROJ2\SDIZO_PROJ2\DEBUG\NODELIST.OBJ|C:\USERS\PRZEMEK\DESKTOP\PWR\SEMESTR IV\STRUKTURY DANYCH I ZŁOŻONOŚĆ OBLICZENIOWA\PROJEKT\SDIZO_BANASIAK_PROJ2\SDIZO_PROJ2\SDIZO_PROJ2\DEBUG\SDIZO_PROJ2.OBJ|C:\USERS\PRZEMEK\DESKTOP\PWR\SEMESTR IV\STRUKTURY DANYCH I ZŁOŻONOŚĆ OBLICZENIOWA\PROJEKT\SDIZO_BANASIAK_PROJ2\SDIZO_PROJ2\SDIZO_PROJ2\DEBUG\STDAFX.OBJ|C:\USERS\PRZEMEK\DESKTOP\PWR\SEMESTR IV\STRUKTURY DANYCH I ZŁOŻONOŚĆ OBLICZENIOWA\PROJEKT\SDIZO_BANASIAK_PROJ2\SDIZO_PROJ2\SDIZO_PROJ2\DEBUG\TIMESTOPER.OBJ
C:\USERS\PRZEMEK\DESKTOP\PWR\SEMESTR IV\STRUKTURY DANYCH I ZłOżONOść OBLICZENIOWA\PROJEKT\SDIZO_BANASIAK_PROJ2\SDIZO_PROJ2\DEBUG\SDIZO_PROJ2.EXE
C:\USERS\PRZEMEK\DESKTOP\PWR\SEMESTR IV\STRUKTURY DANYCH I ZłOżONOść OBLICZENIOWA\PROJEKT\SDIZO_BANASIAK_PROJ2\SDIZO_PROJ2\DEBUG\SDIZO_PROJ2.ILK
C:\USERS\PRZEMEK\DESKTOP\PWR\SEMESTR IV\STRUKTURY DANYCH I ZŁOŻONOŚĆ OBLICZENIOWA\PROJEKT\SDIZO_BANASIAK_PROJ2\SDIZO_PROJ2\DEBUG\SDIZO_PROJ2.PDB
