^C:\USERS\PRZEMEK\DESKTOP\PWR\SEMESTR IV\STRUKTURY DANYCH I ZŁOŻONOŚĆ OBLICZENIOWA\PROJEKT\SDIZO_BANASIAK_PROJ1\SDIZO_PROJ2\SDIZO_PROJ2\DEBUG\GRAPHADJACENCYLISTS.OBJ|C:\USERS\PRZEMEK\DESKTOP\PWR\SEMESTR IV\STRUKTURY DANYCH I ZŁOŻONOŚĆ OBLICZENIOWA\PROJEKT\SDIZO_BANASIAK_PROJ1\SDIZO_PROJ2\SDIZO_PROJ2\DEBUG\GRAPHINCIDENCEMATRIX.OBJ|C:\USERS\PRZEMEK\DESKTOP\PWR\SEMESTR IV\STRUKTURY DANYCH I ZŁOŻONOŚĆ OBLICZENIOWA\PROJEKT\SDIZO_BANASIAK_PROJ1\SDIZO_PROJ2\SDIZO_PROJ2\DEBUG\GRAPHTOP.OBJ|C:\USERS\PRZEMEK\DESKTOP\PWR\SEMESTR IV\STRUKTURY DANYCH I ZŁOŻONOŚĆ OBLICZENIOWA\PROJEKT\SDIZO_BANASIAK_PROJ1\SDIZO_PROJ2\SDIZO_PROJ2\DEBUG\MENU.OBJ|C:\USERS\PRZEMEK\DESKTOP\PWR\SEMESTR IV\STRUKTURY DANYCH I ZŁOŻONOŚĆ OBLICZENIOWA\PROJEKT\SDIZO_BANASIAK_PROJ1\SDIZO_PROJ2\SDIZO_PROJ2\DEBUG\SDIZO_PROJ2.OBJ|C:\USERS\PRZEMEK\DESKTOP\PWR\SEMESTR IV\STRUKTURY DANYCH I ZŁOŻONOŚĆ OBLICZENIOWA\PROJEKT\SDIZO_BANASIAK_PROJ1\SDIZO_PROJ2\SDIZO_PROJ2\DEBUG\STDAFX.OBJ
C:\WINDOWS\GLOBALIZATION\SORTING\SORTDEFAULT.NLS
C:\PROGRAM FILES (X86)\WINDOWS KITS\10\LIB\10.0.16299.0\UM\X86\KERNEL32.LIB
C:\PROGRAM FILES (X86)\WINDOWS KITS\10\LIB\10.0.16299.0\UM\X86\USER32.LIB
C:\PROGRAM FILES (X86)\WINDOWS KITS\10\LIB\10.0.16299.0\UM\X86\GDI32.LIB
C:\PROGRAM FILES (X86)\WINDOWS KITS\10\LIB\10.0.16299.0\UM\X86\WINSPOOL.LIB
C:\PROGRAM FILES (X86)\WINDOWS KITS\10\LIB\10.0.16299.0\UM\X86\COMDLG32.LIB
C:\PROGRAM FILES (X86)\WINDOWS KITS\10\LIB\10.0.16299.0\UM\X86\ADVAPI32.LIB
C:\PROGRAM FILES (X86)\WINDOWS KITS\10\LIB\10.0.16299.0\UM\X86\SHELL32.LIB
C:\PROGRAM FILES (X86)\WINDOWS KITS\10\LIB\10.0.16299.0\UM\X86\OLE32.LIB
C:\PROGRAM FILES (X86)\WINDOWS KITS\10\LIB\10.0.16299.0\UM\X86\OLEAUT32.LIB
C:\PROGRAM FILES (X86)\WINDOWS KITS\10\LIB\10.0.16299.0\UM\X86\UUID.LIB
C:\PROGRAM FILES (X86)\WINDOWS KITS\10\LIB\10.0.16299.0\UM\X86\ODBC32.LIB
C:\PROGRAM FILES (X86)\WINDOWS KITS\10\LIB\10.0.16299.0\UM\X86\ODBCCP32.LIB
C:\USERS\PRZEMEK\DESKTOP\PWR\SEMESTR IV\STRUKTURY DANYCH I ZłOżONOść OBLICZENIOWA\PROJEKT\SDIZO_BANASIAK_PROJ1\SDIZO_PROJ2\SDIZO_PROJ2\DEBUG\GRAPHADJACENCYLISTS.OBJ
C:\USERS\PRZEMEK\DESKTOP\PWR\SEMESTR IV\STRUKTURY DANYCH I ZłOżONOść OBLICZENIOWA\PROJEKT\SDIZO_BANASIAK_PROJ1\SDIZO_PROJ2\SDIZO_PROJ2\DEBUG\GRAPHINCIDENCEMATRIX.OBJ
C:\USERS\PRZEMEK\DESKTOP\PWR\SEMESTR IV\STRUKTURY DANYCH I ZłOżONOść OBLICZENIOWA\PROJEKT\SDIZO_BANASIAK_PROJ1\SDIZO_PROJ2\SDIZO_PROJ2\DEBUG\GRAPHTOP.OBJ
C:\USERS\PRZEMEK\DESKTOP\PWR\SEMESTR IV\STRUKTURY DANYCH I ZłOżONOść OBLICZENIOWA\PROJEKT\SDIZO_BANASIAK_PROJ1\SDIZO_PROJ2\SDIZO_PROJ2\DEBUG\MENU.OBJ
C:\USERS\PRZEMEK\DESKTOP\PWR\SEMESTR IV\STRUKTURY DANYCH I ZłOżONOść OBLICZENIOWA\PROJEKT\SDIZO_BANASIAK_PROJ1\SDIZO_PROJ2\SDIZO_PROJ2\DEBUG\SDIZO_PROJ2.OBJ
C:\USERS\PRZEMEK\DESKTOP\PWR\SEMESTR IV\STRUKTURY DANYCH I ZłOżONOść OBLICZENIOWA\PROJEKT\SDIZO_BANASIAK_PROJ1\SDIZO_PROJ2\SDIZO_PROJ2\DEBUG\STDAFX.OBJ
C:\WINDOWS\SYSTEM32\TZRES.DLL
D:\PROGRAM FILES (X86)\MICROSOFT VISUAL STUDIO\2017\COMMUNITY\VC\TOOLS\MSVC\14.12.25827\LIB\X86\MSVCRTD.LIB
D:\PROGRAM FILES (X86)\MICROSOFT VISUAL STUDIO\2017\COMMUNITY\VC\TOOLS\MSVC\14.12.25827\LIB\X86\OLDNAMES.LIB
D:\PROGRAM FILES (X86)\MICROSOFT VISUAL STUDIO\2017\COMMUNITY\VC\TOOLS\MSVC\14.12.25827\LIB\X86\MSVCPRTD.LIB
D:\PROGRAM FILES (X86)\MICROSOFT VISUAL STUDIO\2017\COMMUNITY\VC\TOOLS\MSVC\14.12.25827\LIB\X86\VCRUNTIMED.LIB
C:\PROGRAM FILES (X86)\WINDOWS KITS\10\LIB\10.0.16299.0\UCRT\X86\UCRTD.LIB
^C:\USERS\PRZEMEK\DESKTOP\PWR\SEMESTR IV\STRUKTURY DANYCH I ZŁOŻONOŚĆ OBLICZENIOWA\PROJEKT\SDIZO_BANASIAK_PROJ2\SDIZO_PROJ2\SDIZO_PROJ2\DEBUG\BINSEARCHTREE.OBJ|C:\USERS\PRZEMEK\DESKTOP\PWR\SEMESTR IV\STRUKTURY DANYCH I ZŁOŻONOŚĆ OBLICZENIOWA\PROJEKT\SDIZO_BANASIAK_PROJ2\SDIZO_PROJ2\SDIZO_PROJ2\DEBUG\BSTNODE.OBJ|C:\USERS\PRZEMEK\DESKTOP\PWR\SEMESTR IV\STRUKTURY DANYCH I ZŁOŻONOŚĆ OBLICZENIOWA\PROJEKT\SDIZO_BANASIAK_PROJ2\SDIZO_PROJ2\SDIZO_PROJ2\DEBUG\GRAPHADJACENCYLISTS.OBJ|C:\USERS\PRZEMEK\DESKTOP\PWR\SEMESTR IV\STRUKTURY DANYCH I ZŁOŻONOŚĆ OBLICZENIOWA\PROJEKT\SDIZO_BANASIAK_PROJ2\SDIZO_PROJ2\SDIZO_PROJ2\DEBUG\GRAPHINCIDENCEMATRIX.OBJ|C:\USERS\PRZEMEK\DESKTOP\PWR\SEMESTR IV\STRUKTURY DANYCH I ZŁOŻONOŚĆ OBLICZENIOWA\PROJEKT\SDIZO_BANASIAK_PROJ2\SDIZO_PROJ2\SDIZO_PROJ2\DEBUG\GRAPHTOP.OBJ|C:\USERS\PRZEMEK\DESKTOP\PWR\SEMESTR IV\STRUKTURY DANYCH I ZŁOŻONOŚĆ OBLICZENIOWA\PROJEKT\SDIZO_BANASIAK_PROJ2\SDIZO_PROJ2\SDIZO_PROJ2\DEBUG\LIST.OBJ|C:\USERS\PRZEMEK\DESKTOP\PWR\SEMESTR IV\STRUKTURY DANYCH I ZŁOŻONOŚĆ OBLICZENIOWA\PROJEKT\SDIZO_BANASIAK_PROJ2\SDIZO_PROJ2\SDIZO_PROJ2\DEBUG\MENU.OBJ|C:\USERS\PRZEMEK\DESKTOP\PWR\SEMESTR IV\STRUKTURY DANYCH I ZŁOŻONOŚĆ OBLICZENIOWA\PROJEKT\SDIZO_BANASIAK_PROJ2\SDIZO_PROJ2\SDIZO_PROJ2\DEBUG\NODE.OBJ|C:\USERS\PRZEMEK\DESKTOP\PWR\SEMESTR IV\STRUKTURY DANYCH I ZŁOŻONOŚĆ OBLICZENIOWA\PROJEKT\SDIZO_BANASIAK_PROJ2\SDIZO_PROJ2\SDIZO_PROJ2\DEBUG\NODELIST.OBJ|C:\USERS\PRZEMEK\DESKTOP\PWR\SEMESTR IV\STRUKTURY DANYCH I ZŁOŻONOŚĆ OBLICZENIOWA\PROJEKT\SDIZO_BANASIAK_PROJ2\SDIZO_PROJ2\SDIZO_PROJ2\DEBUG\SDIZO_PROJ2.OBJ|C:\USERS\PRZEMEK\DESKTOP\PWR\SEMESTR IV\STRUKTURY DANYCH I ZŁOŻONOŚĆ OBLICZENIOWA\PROJEKT\SDIZO_BANASIAK_PROJ2\SDIZO_PROJ2\SDIZO_PROJ2\DEBUG\STDAFX.OBJ|C:\USERS\PRZEMEK\DESKTOP\PWR\SEMESTR IV\STRUKTURY DANYCH I ZŁOŻONOŚĆ OBLICZENIOWA\PROJEKT\SDIZO_BANASIAK_PROJ2\SDIZO_PROJ2\SDIZO_PROJ2\DEBUG\TIMESTOPER.OBJ
C:\WINDOWS\GLOBALIZATION\SORTING\SORTDEFAULT.NLS
C:\PROGRAM FILES (X86)\WINDOWS KITS\10\LIB\10.0.16299.0\UM\X86\KERNEL32.LIB
C:\PROGRAM FILES (X86)\WINDOWS KITS\10\LIB\10.0.16299.0\UM\X86\USER32.LIB
C:\PROGRAM FILES (X86)\WINDOWS KITS\10\LIB\10.0.16299.0\UM\X86\GDI32.LIB
C:\PROGRAM FILES (X86)\WINDOWS KITS\10\LIB\10.0.16299.0\UM\X86\WINSPOOL.LIB
C:\PROGRAM FILES (X86)\WINDOWS KITS\10\LIB\10.0.16299.0\UM\X86\COMDLG32.LIB
C:\PROGRAM FILES (X86)\WINDOWS KITS\10\LIB\10.0.16299.0\UM\X86\ADVAPI32.LIB
C:\PROGRAM FILES (X86)\WINDOWS KITS\10\LIB\10.0.16299.0\UM\X86\SHELL32.LIB
C:\PROGRAM FILES (X86)\WINDOWS KITS\10\LIB\10.0.16299.0\UM\X86\OLE32.LIB
C:\PROGRAM FILES (X86)\WINDOWS KITS\10\LIB\10.0.16299.0\UM\X86\OLEAUT32.LIB
C:\PROGRAM FILES (X86)\WINDOWS KITS\10\LIB\10.0.16299.0\UM\X86\UUID.LIB
C:\PROGRAM FILES (X86)\WINDOWS KITS\10\LIB\10.0.16299.0\UM\X86\ODBC32.LIB
C:\PROGRAM FILES (X86)\WINDOWS KITS\10\LIB\10.0.16299.0\UM\X86\ODBCCP32.LIB
C:\USERS\PRZEMEK\DESKTOP\PWR\SEMESTR IV\STRUKTURY DANYCH I ZłOżONOść OBLICZENIOWA\PROJEKT\SDIZO_BANASIAK_PROJ2\SDIZO_PROJ2\SDIZO_PROJ2\DEBUG\BINSEARCHTREE.OBJ
C:\USERS\PRZEMEK\DESKTOP\PWR\SEMESTR IV\STRUKTURY DANYCH I ZłOżONOść OBLICZENIOWA\PROJEKT\SDIZO_BANASIAK_PROJ2\SDIZO_PROJ2\SDIZO_PROJ2\DEBUG\BSTNODE.OBJ
C:\USERS\PRZEMEK\DESKTOP\PWR\SEMESTR IV\STRUKTURY DANYCH I ZłOżONOść OBLICZENIOWA\PROJEKT\SDIZO_BANASIAK_PROJ2\SDIZO_PROJ2\SDIZO_PROJ2\DEBUG\GRAPHADJACENCYLISTS.OBJ
C:\USERS\PRZEMEK\DESKTOP\PWR\SEMESTR IV\STRUKTURY DANYCH I ZłOżONOść OBLICZENIOWA\PROJEKT\SDIZO_BANASIAK_PROJ2\SDIZO_PROJ2\SDIZO_PROJ2\DEBUG\GRAPHINCIDENCEMATRIX.OBJ
C:\USERS\PRZEMEK\DESKTOP\PWR\SEMESTR IV\STRUKTURY DANYCH I ZłOżONOść OBLICZENIOWA\PROJEKT\SDIZO_BANASIAK_PROJ2\SDIZO_PROJ2\SDIZO_PROJ2\DEBUG\GRAPHTOP.OBJ
C:\USERS\PRZEMEK\DESKTOP\PWR\SEMESTR IV\STRUKTURY DANYCH I ZłOżONOść OBLICZENIOWA\PROJEKT\SDIZO_BANASIAK_PROJ2\SDIZO_PROJ2\SDIZO_PROJ2\DEBUG\LIST.OBJ
C:\USERS\PRZEMEK\DESKTOP\PWR\SEMESTR IV\STRUKTURY DANYCH I ZłOżONOść OBLICZENIOWA\PROJEKT\SDIZO_BANASIAK_PROJ2\SDIZO_PROJ2\SDIZO_PROJ2\DEBUG\MENU.OBJ
C:\USERS\PRZEMEK\DESKTOP\PWR\SEMESTR IV\STRUKTURY DANYCH I ZłOżONOść OBLICZENIOWA\PROJEKT\SDIZO_BANASIAK_PROJ2\SDIZO_PROJ2\SDIZO_PROJ2\DEBUG\NODE.OBJ
C:\USERS\PRZEMEK\DESKTOP\PWR\SEMESTR IV\STRUKTURY DANYCH I ZłOżONOść OBLICZENIOWA\PROJEKT\SDIZO_BANASIAK_PROJ2\SDIZO_PROJ2\SDIZO_PROJ2\DEBUG\NODELIST.OBJ
C:\USERS\PRZEMEK\DESKTOP\PWR\SEMESTR IV\STRUKTURY DANYCH I ZłOżONOść OBLICZENIOWA\PROJEKT\SDIZO_BANASIAK_PROJ2\SDIZO_PROJ2\SDIZO_PROJ2\DEBUG\SDIZO_PROJ2.OBJ
C:\USERS\PRZEMEK\DESKTOP\PWR\SEMESTR IV\STRUKTURY DANYCH I ZłOżONOść OBLICZENIOWA\PROJEKT\SDIZO_BANASIAK_PROJ2\SDIZO_PROJ2\SDIZO_PROJ2\DEBUG\STDAFX.OBJ
C:\USERS\PRZEMEK\DESKTOP\PWR\SEMESTR IV\STRUKTURY DANYCH I ZłOżONOść OBLICZENIOWA\PROJEKT\SDIZO_BANASIAK_PROJ2\SDIZO_PROJ2\SDIZO_PROJ2\DEBUG\TIMESTOPER.OBJ
C:\WINDOWS\SYSTEM32\TZRES.DLL
D:\PROGRAM FILES (X86)\MICROSOFT VISUAL STUDIO\2017\COMMUNITY\VC\TOOLS\MSVC\14.12.25827\LIB\X86\MSVCPRTD.LIB
D:\PROGRAM FILES (X86)\MICROSOFT VISUAL STUDIO\2017\COMMUNITY\VC\TOOLS\MSVC\14.12.25827\LIB\X86\MSVCRTD.LIB
D:\PROGRAM FILES (X86)\MICROSOFT VISUAL STUDIO\2017\COMMUNITY\VC\TOOLS\MSVC\14.12.25827\LIB\X86\OLDNAMES.LIB
D:\PROGRAM FILES (X86)\MICROSOFT VISUAL STUDIO\2017\COMMUNITY\VC\TOOLS\MSVC\14.12.25827\LIB\X86\VCRUNTIMED.LIB
C:\PROGRAM FILES (X86)\WINDOWS KITS\10\LIB\10.0.16299.0\UCRT\X86\UCRTD.LIB
